<?xml version="1.0" encoding="UTF-8" standalone="no"?>
<!-- Created with Inkscape (http://www.inkscape.org/) -->

<svg
   width="267.04272mm"
   height="140.09636mm"
   viewBox="0 0 267.04272 140.09636"
   version="1.1"
   id="svg109588"
   sodipodi:docname="stacked-primary-light.svg"
   inkscape:version="1.1.2 (0a00cf5339, 2022-02-04, custom)"
   xmlns:inkscape="http://www.inkscape.org/namespaces/inkscape"
   xmlns:sodipodi="http://sodipodi.sourceforge.net/DTD/sodipodi-0.dtd"
   xmlns="http://www.w3.org/2000/svg"
   xmlns:svg="http://www.w3.org/2000/svg">
  <sodipodi:namedview
     id="namedview109590"
     pagecolor="#ffffff"
     bordercolor="#666666"
     borderopacity="1.0"
     inkscape:pageshadow="2"
     inkscape:pageopacity="0.0"
     inkscape:pagecheckerboard="0"
     inkscape:document-units="mm"
     showgrid="false"
     inkscape:zoom="0.52745136"
     inkscape:cx="336.52392"
     inkscape:cy="126.07798"
     inkscape:window-width="1892"
     inkscape:window-height="1002"
     inkscape:window-x="10"
     inkscape:window-y="64"
     inkscape:window-maximized="1"
     inkscape:current-layer="layer1" />
  <defs
     id="defs109585" />
  <g
     inkscape:label="Layer 1"
     inkscape:groupmode="layer"
     id="layer1"
     transform="translate(-292.55232,-42.62933)">
    <g
       id="g2651"
       style="fill:#d67c00;fill-opacity:1"
       transform="translate(-1029.072,-552.88641)">
      <g
         aria-label="tech"
         id="g2451"
         style="font-size:69.9166px;line-height:1.25;fill:#d67c00;fill-opacity:1;stroke-width:1.74794"
         transform="translate(499.95753,643.85288)">
        <path
           d="m 833.82026,-13.873833 v 1.365559 q 0,3.3456185 0.99003,4.847733 0.99003,1.4679756 3.20906,1.8435042 1.229,0.1365559 2.21903,0.1365559 2.38973,0 4.09668,-0.9558911 0.51208,-0.2731117 0.88761,-0.6827793 0.40967,-0.4438066 0.64864,-0.9558911 0.27312,-0.5120845 0.40967,-0.8876131 0.13656,-0.3755286 0.27311,-0.8534745 0.13656,-0.512084 0.1707,-0.580362 l 7.1009,3.4138966 q -0.27311,0.7169183 -0.85347,1.7752262 -0.58036,1.024169 -2.0142,2.6287004 -1.3997,1.5703925 -3.14079,2.5604225 -2.458,1.4338366 -7.51057,1.4338366 -5.42809,0 -8.77371,-1.16072487 -3.31148,-1.16072483 -4.98429,-4.64289943 -1.33142,-2.7311173 -1.33142,-7.988518 v -1.433837 q 0.20483,-8.773714 0.30725,-12.460722 h -0.47795 q -1.46797,0 -2.79939,0.409667 l -0.58036,-6.964349 q 1.229,-0.409668 3.48217,-0.409668 h 0.51209 q 0,-1.194863 0,-4.096676 0.0341,-2.935951 0.0341,-4.130814 l 8.56889,0.204833 q 0,3.243202 -0.0683,7.886102 1.63867,0 5.22326,0.03414 3.58459,0.03414 6.4864,0.06828 2.90181,0.03414 2.93595,0.03414 l -0.10241,6.96435 q -2.35559,0 -7.37402,-0.03414 -4.98429,-0.03414 -7.23746,-0.03414 -0.10242,3.038368 -0.1707,7.100905 -0.0683,4.028398 -0.13655,5.564651 z"
           style="font-weight:bold;font-family:'Fantasque Sans Mono';-inkscape-font-specification:'Fantasque Sans Mono';fill:#d67c00;fill-opacity:1"
           id="path2443" />
        <path
           d="m 866.7985,-19.677457 q 4.6429,-0.819335 11.60725,-0.819335 -0.13656,-3.209063 -1.70695,-4.813595 -1.53625,-1.604531 -3.92598,-1.604531 -2.52628,0 -4.16495,2.082477 -1.63867,2.082477 -1.80937,5.154984 z m 5.90604,-14.167671 q 7.81783,0 11.19758,4.745316 3.4139,4.745316 3.4139,13.826282 l -0.0341,1.467975 q -14.95287,0.204834 -20.48338,1.297281 0.40967,2.833534 2.35559,4.847733 1.98006,1.9800601 4.33565,1.9800601 2.56042,0 4.09667,-0.8534742 1.5704,-0.8534741 3.48218,-2.9018121 l 6.07674,5.3256787 q -1.43384,1.6045315 -2.49215,2.4921446 -1.05831,0.88761311 -2.66284,1.63867037 -1.57039,0.75105726 -3.61873,1.02416903 -2.04834,0.3072507 -5.08671,0.3072507 -7.20332,0 -11.26585,-4.8818722 -4.0284,-4.9160112 -4.0284,-13.075224 0,-7.61299 3.8577,-12.426584 3.8577,-4.813594 10.85619,-4.813594 z"
           style="font-weight:bold;font-family:'Fantasque Sans Mono';-inkscape-font-specification:'Fantasque Sans Mono';fill:#d67c00;fill-opacity:1"
           id="path2445" />
        <path
           d="m 902.84925,-17.014618 q 0,3.072507 0.6145,5.325679 0.6145,2.2190328 1.3997,3.3114797 0.81933,1.058308 1.98006,1.6728094 1.16072,0.6145014 1.77523,0.7169183 0.64864,0.068278 1.39969,0.068278 h 0.40967 q 2.35559,0 3.89184,-1.2972807 1.5704,-1.2972807 3.00423,-3.7211477 l 7.71541,4.5746219 q -1.74109,3.8577032 -5.22326,5.73534631 -3.48218,1.87764319 -9.04683,1.87764319 -3.37976,0 -6.11087,-0.5462235 -2.69698,-0.54622347 -4.91602,-2.1848939 -3.17492,-2.4580055 -4.50634,-6.2474308 -1.29728,-3.8235642 -1.29728,-9.2516602 0,-16.762232 16.83051,-16.762232 5.59879,0 8.70544,2.082477 3.03837,2.048338 4.36978,5.154984 l -7.51057,3.482174 q -0.92175,-3.516313 -6.17915,-3.516313 -3.55045,0 -5.4281,2.765256 -1.87764,2.765256 -1.87764,6.759515 z"
           style="font-weight:bold;font-family:'Fantasque Sans Mono';-inkscape-font-specification:'Fantasque Sans Mono';fill:#d67c00;fill-opacity:1"
           id="path2447" />
        <path
           d="m 959.86133,-18.311898 v 11.8803598 q 0,3.9259812 1.50211,6.07673604 l -7.7154,2.73111726 q -2.1849,-3.03836796 -2.1849,-7.3740167 V -15.751476 q 0,-3.038368 -0.40966,-5.154984 -0.37553,-2.150755 -0.92176,-3.277341 -0.54622,-1.126586 -1.50211,-1.706948 -0.95589,-0.614501 -1.70695,-0.716918 -0.71692,-0.136556 -1.87764,-0.136556 -1.77523,0 -3.34562,1.365559 -1.57039,1.331419 -2.6287,3.106645 V 1.0107565 h -8.36405 V -38.453889 q 0,-3.106646 -0.54622,-8.398185 l 8.46646,-0.307251 q 0.47795,3.891842 0.47795,8.876131 0,4.062537 -0.81934,7.578851 3.78943,-2.867673 7.92024,-2.867673 6.6571,0 10.13928,3.652869 3.51631,3.61873 3.51631,11.607249 z"
           style="font-weight:bold;font-family:'Fantasque Sans Mono';-inkscape-font-specification:'Fantasque Sans Mono';fill:#d67c00;fill-opacity:1"
           id="path2449" />
      </g>
      <path
         d="m 1373.2863,692.69073 q 1.5108,-0.68532 3.0516,-1.41742 1.5765,-0.7373 2.9021,-1.43832 -0.8679,-1.95516 -1.7957,-4.07151 -0.9277,-2.11637 -1.9211,-4.18075 -0.9636,-2.11117 -1.9389,-4.0508 -0.9815,-1.98122 -1.9804,-3.57774 -2.3493,5.26477 -4.6624,11.0338 -2.2772,5.76387 -4.2376,11.69427 1.0571,-0.28009 2.2338,-0.49255 1.1706,-0.25408 1.8514,-0.60715 0.9196,-0.47254 1.6361,-0.83083 0.7525,-0.36345 1.475,-0.68016 0.7584,-0.32186 1.5528,-0.64892 0.7942,-0.32705 1.8333,-0.73192 z m 26.9692,17.50358 q 0.1503,1.03979 -0.076,2.00658 -0.1904,0.96162 -0.6974,1.75671 -0.4773,0.7483 -1.2775,1.28849 -0.7642,0.53501 -1.7318,0.67482 -0.896,0.12944 -1.8522,-0.41176 -0.9564,-0.54121 -1.9307,-1.46191 -0.9388,-0.92591 -1.8777,-2.10651 -0.9091,-1.22739 -1.7107,-2.4703 -0.7657,-1.24811 -1.4058,-2.38696 -0.6402,-1.13885 -1.041,-1.88766 -0.5566,-1.06604 -1.0889,-1.96568 -0.5326,-0.89966 -1.1789,-2.33483 -0.371,-0.79561 -0.5745,-1.19081 -0.1676,-0.4004 -0.3052,-0.5928 -0.1074,-0.23921 -0.1974,-0.35364 -0.06,-0.16119 -0.1737,-0.44199 -0.6627,0.4779 -1.475,0.68017 -0.8182,0.16066 -1.8217,0.30562 -0.1793,0.0259 -0.5852,0.25441 -0.4121,0.18689 -0.9554,0.47771 -0.5077,0.28562 -1.0808,0.6232 -0.5434,0.29078 -1.057,0.53482 -1.6482,0.74763 -3.5891,1.49511 -1.9409,0.74747 -4.0611,1.52083 -2.126,0.73174 -4.3536,1.52063 -2.1978,0.74212 -4.4255,1.531 -0.2448,0.0779 -0.406,0.2285 -0.1611,0.15067 -0.4056,0.73798 -0.2505,0.54568 -0.7394,1.72028 -0.4889,1.17458 -1.3832,3.34186 -1.0313,2.48432 -2.0035,4.36561 -0.9781,1.83972 -1.8791,3.20121 -0.865,1.35633 -1.9576,2.1511 -1.0568,0.78955 -2.3111,0.97076 -1.6488,0.23818 -3.011,-0.0744 -1.3563,-0.27111 -2.3604,-0.89033 -0.9684,-0.62437 -1.5604,-1.43049 -0.5563,-0.81129 -0.6645,-1.55995 -0.2043,-1.41413 0.757,-2.10498 0.9552,-0.73244 2.7289,-1.37084 0,-0.0416 0.3042,-0.68084 0.31,-0.63924 0.7394,-1.46556 0.4296,-0.8263 0.8291,-1.60585 0.4295,-0.82632 0.5903,-1.23172 1.0732,-2.4479 2.2301,-5.07768 1.1866,-2.67657 2.5577,-6.10164 v 0.0416 q 0.7035,-1.7151 1.1266,-2.83774 0.4591,-1.12784 0.8646,-2.12052 0.4052,-0.99269 0.8405,-2.03214 0.4712,-1.04465 1.127,-2.58303 1.6992,-3.93953 2.9873,-6.67321 1.318,-2.78046 2.1528,-4.59945 0.9537,-2.51556 1.7942,-4.80241 0.3694,-0.98753 0.7032,-1.96985 0.3277,-1.02392 0.6316,-1.95951 0.3039,-0.93554 0.5182,-1.7308 0.2442,-0.84202 0.3453,-1.4086 2.5164,-12.71939 5.5627,-13.1595 1.3261,-0.19157 2.1865,-0.0611 0.8544,0.0889 1.3685,0.60902 0.5441,0.47339 0.8196,1.3677 0.3115,0.88912 0.5096,2.26165 0.1863,1.28936 0.2945,2.03802 0.1017,0.70705 0.1444,1.25293 0.042,0.54585 0.085,1.09174 0.078,0.54068 0.1386,1.46607 1.1666,1.99691 2.2795,4.12896 1.1487,2.12688 2.1841,4.2277 0.2154,0.4784 0.9156,2.03315 0.7302,1.50801 1.6878,3.57757 0.9934,2.06444 2.0587,4.37319 1.1011,2.3036 2.0169,4.33677 0.9515,2.028 1.6397,3.49957 0.6883,1.4716 0.8918,1.8668 0.8023,2.26182 3.7279,7.31652 0.3828,0.62405 0.6341,1.09728 0.2871,0.46802 0.6162,0.97245 0.3647,0.49929 0.8969,1.14421 0.5323,0.64493 1.4113,1.66437 3.0377,3.55236 3.3021,5.3824 z"
         style="font-size:82.6197px;-inkscape-font-specification:'Segoe Script';fill:#d67c00;fill-opacity:1;stroke-width:1.9973"
         id="path2453" />
      <path
         d="m 1424.9422,659.5635 q 0.2128,1.47339 0.1641,3.02414 -0.021,1.50718 -0.2537,2.96577 -0.1993,1.45375 -0.5824,2.81534 -0.3887,1.32279 -0.8723,2.46138 -0.072,0.20834 -0.2835,0.6347 -0.1834,0.38274 -0.4615,0.81874 -0.2837,0.39724 -0.612,0.72175 -0.2949,0.31968 -0.629,0.36794 -0.7351,0.10615 -1.114,-0.15572 -0.3789,-0.26193 -0.4965,-1.07616 -0.062,-0.42651 -0.067,-0.94025 0.027,-0.51852 0.099,-1.20181 0.044,-0.6397 0.06,-1.23577 0.044,-0.63968 0,-1.38601 -0.04,-0.74635 -0.135,-1.64297 -0.067,-0.94024 -0.2412,-2.14218 -0.1177,-0.81424 -0.3522,-1.49285 -0.2066,-0.72223 -0.4855,-1.23608 -0.2845,-0.55264 -0.5632,-0.82903 -0.2843,-0.31518 -0.4847,-0.28622 -0.568,0.0821 -0.9907,0.69728 -0.395,0.57164 -0.7505,1.65214 -0.3277,1.03691 -0.616,2.58269 -0.2549,1.54097 -0.554,3.48413 -0.166,1.21148 -0.2423,3.28079 -0.082,2.03052 -0.058,4.32283 0.024,2.29229 0.1096,4.53614 0.085,2.24387 0.2149,3.84805 1.3419,-0.39177 2.9064,-0.89487 1.5589,-0.54188 3.1512,-1.08857 1.5867,-0.58549 3.1122,-1.12252 1.5199,-0.57583 2.7502,-1.03066 1.2583,-0.49845 2.1323,-0.82263 0.8685,-0.36296 1.1246,-0.47914 0.4509,-0.18389 1.0577,-0.46945 0.6346,-0.32919 1.3361,-0.66802 0.7014,-0.33883 1.414,-0.60013 0.746,-0.2661 1.4477,-0.36747 1.0863,0.4368 1.3428,0.79557 0.2899,0.35394 0.3347,0.66414 0.095,0.65915 -0.1437,1.36655 -0.2444,0.66864 -0.6616,1.32264 -0.4227,0.61523 -0.9291,1.1238 -0.5119,0.4698 -0.9183,0.7264 -2.4045,1.53488 -4.9708,2.89519 -2.5328,1.35546 -4.9934,2.5026 -2.4605,1.14714 -4.7431,2.11022 -2.2547,0.91949 -4.1699,1.592 0.1746,2.38931 0.2827,5.02573 0.1358,2.59281 0.2439,5.22925 0.1024,2.59766 0.1602,5.12257 0.058,2.52495 0.071,4.73968 0.046,2.20993 0,3.99817 -0.01,1.82218 -0.081,2.98039 -0.1973,3.82843 -1.0302,6.79871 -0.7938,3.00421 -2.0618,5.08738 -1.229,2.11709 -2.8932,3.34708 -1.6641,1.22997 -3.6353,1.51475 -1.4367,0.20756 -2.6011,-0.29712 -1.1587,-0.46593 -1.9892,-1.25634 -0.8583,-0.74682 -1.3268,-1.62911 -0.4964,-0.8387 -0.5748,-1.38151 -0.2745,-1.8999 0.3263,-2.69919 0.5674,-0.79444 1.5697,-0.93925 0.568,-0.082 1.0972,0.0394 0.4957,0.12629 0.9581,0.25741 0.4679,0.16989 0.8969,0.30583 0.4623,0.13113 0.8967,0.0684 1.0023,-0.14485 1.6863,-1.31235 0.6896,-1.1288 1.1506,-2.65993 0.2611,-0.7898 0.3931,-2.70885 0.1321,-1.91904 0.1967,-4.54082 0.07,-2.58301 0.012,-5.58287 -0.03,-3.04348 -0.1554,-6.03369 -0.125,-2.99021 -0.339,-5.65092 -0.1861,-2.70431 -0.4605,-4.6042 -0.095,-0.65915 -0.1176,-0.81425 -0.022,-0.15509 -0.056,-0.15027 -0.2005,0.029 -0.5234,0.1548 -0.3285,0.087 -0.7294,0.14496 -0.7684,0.11107 -1.4481,-0.10745 -0.6796,-0.21848 -0.8308,-1.26535 -0.2017,-1.39584 0.3709,-2.62646 0.606,-1.23544 1.4629,-2.15089 0.2671,-0.27608 0.5674,-0.79446 0.3337,-0.52319 0.5503,-1.14824 0.2167,-0.62503 0.2263,-2.44722 0.037,-1.86579 0.046,-4.40037 0.037,-2.57819 0.079,-5.59253 0.036,-3.05311 0.2623,-5.97529 0.2701,-3.32436 1.0476,-5.96997 0.7774,-2.6456 1.9676,-4.55918 1.1846,-1.95235 2.7597,-3.09031 1.5751,-1.13796 3.4461,-1.40827 1.5703,-0.22686 2.8571,0.18097 1.3202,0.40301 2.3068,1.32922 1.0199,0.92138 1.6615,2.29324 0.6694,1.32827 0.9159,3.0343 z"
         style="font-size:82.6197px;-inkscape-font-specification:'Segoe Script';fill:#d67c00;fill-opacity:1;stroke-width:1.86195"
         id="path2455" />
      <path
         d="m 1462.4573,675.46283 q 0.1571,1.32312 -0.1151,2.27284 -0.2386,0.94486 -0.7616,1.57459 -0.4952,0.5861 -1.1966,0.92493 -0.707,0.30007 -1.442,0.40625 -0.6014,0.0869 -1.2308,-0.0201 -0.6294,-0.10699 -1.2642,-0.0153 -1.0692,0.15447 -2.5275,1.1568 -1.4304,0.95872 -2.8939,2.39721 -1.4634,1.43849 -2.8209,3.13873 -1.3574,1.70026 -2.2861,3.29897 -0.5172,0.90595 -1.1844,2.18983 -0.6728,1.24509 -1.262,2.59685 -0.5558,1.34694 -0.9111,2.66491 -0.3219,1.31316 -0.1763,2.32126 0.1793,1.24075 0.6206,2.87903 0.4747,1.63347 0.7436,3.49459 0.095,0.65914 0.1459,1.24557 0.078,0.54282 0.023,1.10493 4e-4,0.47496 -0.2831,1.10966 -0.2557,0.59108 -0.7174,1.17237 -0.4562,0.62005 -1.0406,1.06072 -0.5844,0.44067 -1.2526,0.53721 -1.1025,0.15928 -2.0054,-0.66027 -0.9029,-0.81952 -1.6115,-2.41921 -0.6752,-1.6045 -1.2006,-3.82438 -0.5253,-2.21989 -0.9006,-4.8177 -0.022,-0.15509 -0.1512,-1.04688 -0.095,-0.89661 -0.2467,-1.94349 -0.1179,-1.0517 -0.2245,-2.02586 -0.1066,-0.97416 -0.1459,-1.24558 -0.022,-0.15509 -0.1122,-1.01292 -0.056,-0.86267 -0.1632,-2.0743 -0.08,-1.25519 -0.2139,-2.66072 -0.107,-1.4491 -0.225,-2.73826 -0.084,-1.29404 -0.1575,-2.27301 -0.079,-1.01776 -0.09,-1.33276 0.016,-0.12115 -0.045,-0.78516 -0.034,-0.70758 -0.096,-1.609 -0.028,-0.90626 -0.029,-1.85614 -8e-4,-0.94986 0.043,-1.58954 0.055,-0.56215 0.3498,-1.35675 0.3279,-0.79943 0.8674,-1.55029 0.5674,-0.79446 1.3021,-1.37558 0.729,-0.61991 1.6311,-0.75023 1.0691,-0.15447 1.7599,0.14156 0.7243,0.29119 1.1758,0.8197 0.4794,0.4849 0.7082,1.12474 0.2233,0.60106 0.2961,1.10511 0.045,0.31021 0,1.42481 -0.049,1.07584 -0.1984,2.40363 -0.1545,1.76395 -0.1247,4.095 0.024,2.2923 0.1596,4.4102 1.4903,-2.66944 3.2423,-5.41624 1.7463,-2.78558 3.7326,-5.09125 1.9806,-2.34444 4.1735,-3.9279 2.1873,-1.62222 4.5595,-1.96491 1.1694,-0.16901 2.1721,0.16118 0.9971,0.29136 1.7383,0.93634 0.7691,0.60137 1.232,1.44489 0.4908,0.79992 0.6196,1.69171 l 0.011,0.0776 z"
         style="font-size:82.6197px;-inkscape-font-specification:'Segoe Script';fill:#d67c00;fill-opacity:1;stroke-width:1.86195"
         id="path2457" />
      <path
         d="m 1507.2884,675.97671 c 0.099,0.68397 0,1.59457 -0.3116,2.73178 -0.2853,1.10377 -0.7306,2.36728 -1.3359,3.79052 -0.5841,1.3898 -1.3068,2.90589 -2.1682,4.54828 -0.8658,1.61267 -1.8147,3.2829 -2.847,5.01067 -1.1132,1.89129 -2.3461,3.7695 -3.6985,5.63462 -1.3525,1.86513 -2.816,3.6856 -4.3907,5.46138 -1.5533,1.74234 -3.1282,3.15387 -4.7248,4.23458 -1.6009,1.05097 -3.1701,1.68752 -4.7076,1.90964 -1.7938,0.25915 -3.4063,0.14299 -4.8376,-0.34849 -1.41,-0.52491 -2.675,-1.31364 -3.795,-2.36618 -1.0986,-1.08599 -2.0544,-2.35959 -2.8671,-3.82082 -0.8171,-1.491 -1.5296,-3.07296 -2.1376,-4.74596 -0.5866,-1.70642 -1.0728,-3.4425 -1.4587,-5.20828 -0.3859,-1.76578 -0.6949,-3.4516 -0.9269,-5.05746 -0.09,-0.62451 -0.1871,-1.56681 -0.2907,-2.82692 -0.1035,-1.26011 -0.1901,-2.58338 -0.2599,-3.96984 -0.048,-1.4199 -0.088,-2.78034 -0.1188,-4.08129 -0.01,-1.33438 0.021,-2.38624 0.093,-3.15563 0.1739,-1.5127 0.8582,-3.02324 2.0529,-4.53164 1.1521,-1.44151 2.5481,-2.28073 4.1881,-2.51766 1.6656,-0.24064 2.666,0.79884 3.0011,3.1184 0.159,1.10031 0.2392,2.2879 0.2404,3.56283 0.022,1.24146 0.017,2.47178 -0.016,3.69094 -0.02,2.219 0.033,4.21503 0.1588,5.98808 0.1213,1.74331 0.2783,3.28409 0.4716,4.62231 0.2191,1.51664 0.5086,2.97759 0.8686,4.38282 0.36,1.4052 0.7625,2.65246 1.2077,3.7418 0.4664,1.05589 0.9669,1.89436 1.5013,2.51539 0.5601,0.61735 1.1476,0.8816 1.7626,0.79274 0.7688,-0.11109 1.5524,-0.30014 2.3509,-0.56734 0.7943,-0.29689 1.7164,-0.88549 2.7664,-1.76581 2.0018,-1.71607 4.0737,-3.94317 6.2156,-6.68133 0.751,-0.95854 1.5958,-2.08242 2.5344,-3.37166 0.96,-1.32268 1.905,-2.65837 2.835,-4.00709 0.9257,-1.37845 1.7917,-2.71792 2.5979,-4.01838 0.8062,-1.30046 1.431,-2.40775 1.8745,-3.32187 0.055,-0.1598 0.1321,-0.35303 0.2301,-0.57971 0.1194,-0.26013 0.2516,-0.52208 0.3966,-0.78591 0.145,-0.26382 0.3093,-0.48488 0.4928,-0.66318 0.2048,-0.21175 0.4098,-0.33243 0.6148,-0.36205 0.41,-0.0592 0.7154,-0.0275 0.9163,0.0953 0.2221,0.0893 0.498,0.45933 0.8274,1.10999 0.3893,0.70274 0.6204,1.30687 0.6935,1.81243 z"
         style="font-size:82.6197px;-inkscape-font-specification:'Segoe Script';fill:#d67c00;fill-opacity:1;stroke-width:2.1421"
         id="path2459"
         sodipodi:nodetypes="sccccsccsccccsssccccsscccssccscccccsccscsccs" />
      <path
         d="m 1550.2152,667.5437 q 0.1291,0.89213 0,1.59455 -0.1019,0.65227 -0.4665,1.38802 -0.3327,0.68559 -0.9151,1.54388 -0.5822,0.85827 -1.4141,2.16243 l -2.8154,4.41411 q -0.8958,1.4045 -1.5806,2.36865 -0.6847,0.96415 -1.344,1.83355 -0.6271,0.81921 -1.3183,1.73876 -0.6976,0.87494 -1.6896,2.1567 -2.144,2.81435 -4.2563,5.30535 -2.1122,2.49099 -4.1735,4.51924 -3.0921,3.04239 -6.8514,4.99719 -3.7594,1.9548 -8.1797,2.5934 -2.883,0.41648 -5.2865,-0.46583 -2.4098,-0.92692 -4.2438,-2.75672 -1.8403,-1.87441 -3.0471,-4.52345 -1.1748,-2.69919 -1.6194,-5.77709 -0.8442,-5.84353 0.4192,-12.0371 1.2569,-6.23819 4.122,-12.48099 0.7163,-1.56072 1.7208,-3.29966 1.0428,-1.74451 2.2462,-3.19343 1.1969,-1.49352 2.5416,-2.50748 1.3382,-1.05854 2.7221,-1.25846 0.9225,-0.13328 1.8584,0.36907 0.9679,0.45216 1.9232,1.36152 0.9939,0.90379 1.924,2.1811 0.9237,1.2327 1.7641,2.70511 1.6812,2.9448 1.8875,4.37222 0.1099,0.7583 0.1166,1.89574 0.04,1.08722 -0.2033,2.12414 -0.2041,1.03131 -0.7161,1.83389 -0.5183,0.75795 -1.4793,0.89677 -1.4222,0.20548 -2.4928,-0.68722 -1.0772,-0.93727 -1.892,-2.23126 -0.8148,-1.29398 -1.3926,-2.57666 -0.5391,-1.28824 -0.9305,-1.82371 -0.8645,0.53475 -1.7347,1.84446 -0.832,1.30418 -1.5865,3.14364 -0.7545,1.83945 -1.3293,4.10832 -0.5811,2.22425 -0.9251,4.73299 -0.3119,2.45859 -0.3738,5.01767 -0.024,2.55355 0.3307,5.00696 0.3287,2.27497 1.9959,3.76456 1.8851,1.64028 3.2689,1.44036 4.3819,-0.63305 8.1472,-3.08964 3.8037,-2.46212 7.1196,-6.12884 2.234,-2.46304 4.6276,-5.45006 2.3872,-3.03165 5.1645,-7.16703 0.9982,-1.51036 2.0159,-2.8869 1.0495,-1.42672 2.0674,-2.53004 1.0561,-1.10891 2.0102,-1.83873 0.9925,-0.73538 1.9149,-0.86865 1.9987,-0.28875 2.3532,2.16463 z"
         style="font-size:82.6197px;-inkscape-font-specification:'Segoe Script';fill:#d67c00;fill-opacity:1;stroke-width:2.1421"
         id="path2461" />
      <path
         d="m 1562.7819,662.72265 q -0.3867,-2.67643 -0.977,-3.77513 -0.5584,-1.14885 -1.0964,-1.07112 -0.692,0.0999 -1.4412,0.61804 -0.7172,0.46791 -1.3572,1.19794 -0.6466,0.68538 -1.1969,1.49351 -0.512,0.80257 -0.838,1.53276 -0.582,1.40467 -1.3044,3.19397 -0.7224,1.78928 -1.4511,3.80716 -0.7288,2.01788 -1.4062,4.11944 -0.6389,2.09599 -1.0921,4.1196 -0.4533,2.02364 -0.6568,3.87456 -0.2035,1.85092 0,3.27835 0.2192,1.51664 0.7387,2.39787 0.5133,0.83661 1.5128,0.69223 0.5381,-0.0777 1.4854,-1.12537 0.9857,-1.05319 2.0609,-2.57466 1.1072,-1.57164 2.1436,-3.36075 1.0365,-1.78912 1.6694,-3.38331 0.6905,-1.73913 1.3487,-3.7013 0.6584,-1.96218 1.1564,-3.94673 0.4981,-1.98458 0.6952,-3.88012 0.2354,-1.90108 0,-3.50694 z m 25.8273,15.80461 q 0.1157,0.80295 0,1.91238 -0.1208,1.06484 -0.6197,2.22982 -0.524,1.53293 -1.4965,3.22173 -0.9789,1.64418 -2.336,3.11533 -1.3187,1.46557 -3.0091,2.52948 -1.6586,1.01376 -3.619,1.29698 -2.2293,0.32208 -4.1136,-0.49862 -1.8845,-0.82066 -3.4171,-2.46632 -1.5392,-1.69024 -2.6559,-3.98796 -1.1231,-2.34235 -1.7788,-4.9799 -1.215,2.9989 -2.9232,5.84136 -1.6763,2.79229 -3.6606,5.08267 -1.9523,2.24019 -4.091,3.73317 -2.145,1.44835 -4.2208,1.74823 -1.4991,0.21658 -2.9538,-0.34741 -1.4614,-0.60856 -2.6925,-1.79685 -1.1927,-1.19382 -2.0592,-2.84465 -0.8662,-1.65084 -1.1433,-3.56894 -0.2449,-1.69508 -0.2848,-3.60191 -0.01,-1.95698 0.2525,-4.22601 0.261,-2.26907 0.8097,-4.98955 0.5871,-2.72605 1.5262,-6.00384 1.0412,-3.65689 2.7875,-7.0513 1.7399,-3.43905 3.6727,-6.08627 1.9263,-2.69181 3.8405,-4.38005 1.9143,-1.68826 3.2596,-1.88262 0.4228,-0.0611 0.9483,0.0452 0.5575,0.056 1.051,0.21246 0.4869,0.11182 0.8587,0.24027 0.3716,0.12844 0.487,0.11179 0.039,-0.006 0.2433,-0.2173 0.2049,-0.21176 0.5249,-0.44016 0.3137,-0.27299 0.6789,-0.46237 0.397,-0.23952 0.8198,-0.3006 0.6535,-0.0945 1.4482,0.24616 0.8267,0.29041 1.6218,0.90417 0.7885,0.56917 1.4491,1.33893 0.6605,0.76981 0.9366,1.59515 0.1927,0.51862 0.3018,0.73054 0.1032,0.16729 0.199,0.29003 0.5769,0.46311 0.9811,1.08778 0.3977,0.5801 0.5653,1.73985 0.077,0.5353 0.014,2.00161 -0.031,1.41613 -0.1189,3.2504 -0.05,1.82873 -0.035,3.8303 0.047,1.95142 0.2781,3.55733 0.5993,4.14847 1.4347,6.94224 0.8673,2.7436 1.8104,4.38335 0.9433,1.63969 1.9368,2.27031 0.9873,0.58599 1.8712,0.45829 2.3448,-0.33875 3.8365,-1.69273 1.5302,-1.35953 2.5214,-3.46088 0.2751,-0.54065 0.4543,-0.93083 0.2109,-0.44033 0.4029,-0.74128 0.2304,-0.30652 0.5185,-0.48477 0.3266,-0.1838 0.7878,-0.25044 0.5767,-0.0833 1.2754,0.40776 0.6924,0.44642 0.8214,1.33855 z"
         style="font-size:82.6197px;-inkscape-font-specification:'Segoe Script';fill:#d67c00;fill-opacity:1;stroke-width:2.1421"
         id="path2463" />
      <g
         aria-label="lit"
         id="g2471"
         style="font-size:69.9166px;line-height:1.25;fill:#d67c00;fill-opacity:1;stroke-width:1.74794"
         transform="translate(499.95753,643.85288)">
        <path
           d="m 991.76411,-47.34711 h 8.67129 q 0,0 0.068,38.4746149 0,1.7410873 0.7169,2.4580056 0.7169,0.6827793 2.9701,0.6827793 2.2873,0 3.9601,-0.7510573 1.6728,-0.7851962 3.3115,-2.3555887 l 3.3115,6.4864037 q -2.0825,1.70694827 -5.4964,2.59456139 -3.3798,0.85347421 -6.8278,0.85347421 -5.12084,0 -7.51057,-1.29728077 -3.17492,-1.74108733 -3.17492,-6.34984773 0,-3.8918426 -0.0341,-11.8462216 0,-7.988518 0,-11.88036 0,-6.691237 0.0341,-10.24169 h -1.36556 q -4.54048,0 -7.40816,0.64864 l -0.99003,-6.349847 q 3.78943,-1.126586 9.76375,-1.126586 z"
           style="font-weight:bold;font-family:'Fantasque Sans Mono';-inkscape-font-specification:'Fantasque Sans Mono';fill:#d67c00;fill-opacity:1"
           id="path2465" />
        <path
           d="m 1027.9173,-48.33714 h 9.6954 l 0.068,8.398185 h -9.7296 z m 0,14.235949 h 8.7054 q 0,0 0.034,25.2286959 0,1.7410873 0.7169,2.4580056 0.751,0.6827793 3.0042,0.6827793 2.2873,0 3.9601,-0.7510573 1.6728,-0.7851962 3.3115,-2.3555887 l 3.3115,6.4864037 q -2.0825,1.70694827 -5.4964,2.59456139 -3.3798,0.85347421 -6.8278,0.85347421 -5.155,0 -7.5447,-1.29728077 -3.1749,-1.74108733 -3.1749,-6.34984773 V -27.273398 q -3.8577,0 -7.9885,0.955891 l -0.9901,-6.349848 q 4.8136,-1.433836 8.9786,-1.433836 z"
           style="font-weight:bold;font-family:'Fantasque Sans Mono';-inkscape-font-specification:'Fantasque Sans Mono';fill:#d67c00;fill-opacity:1"
           id="path2467" />
        <path
           d="m 1066.6991,-14.403008 v 1.365559 q 0,3.3456187 0.9901,4.8477332 0.99,1.4679756 3.209,1.8435042 1.229,0.1365559 2.2191,0.1365559 2.3897,0 4.0966,-0.9558911 0.5121,-0.2731117 0.8877,-0.6827793 0.4096,-0.4438066 0.6486,-0.9558911 0.2731,-0.5120845 0.4097,-0.8876131 0.1365,-0.3755287 0.2731,-0.8534737 0.1365,-0.512085 0.1707,-0.580363 l 7.1009,3.4138967 q -0.2731,0.7169183 -0.8535,1.7752263 -0.5804,1.024169 -2.0142,2.6287004 -1.3997,1.5703924 -3.1408,2.56042247 -2.458,1.43383659 -7.5106,1.43383659 -5.4281,0 -8.7737,-1.16072486 -3.3114,-1.1607249 -4.9843,-4.6428994 -1.3314,-2.7311173 -1.3314,-7.9885182 v -1.433837 q 0.2049,-8.773714 0.3073,-12.460722 h -0.478 q -1.4679,0 -2.7994,0.409667 l -0.5803,-6.964349 q 1.229,-0.409667 3.4821,-0.409667 h 0.5121 q 0,-1.194864 0,-4.096676 0.034,-2.935951 0.034,-4.130815 l 8.5688,0.204834 q 0,3.243201 -0.068,7.886101 1.6386,0 5.2232,0.03414 3.5846,0.03414 6.4864,0.06828 2.9018,0.03414 2.936,0.03414 l -0.1024,6.964349 q -2.3556,0 -7.374,-0.03414 -4.9843,-0.03414 -7.2375,-0.03414 -0.1024,3.038368 -0.1707,7.100905 -0.068,4.028398 -0.1366,5.564651 z"
           style="font-weight:bold;font-family:'Fantasque Sans Mono';-inkscape-font-specification:'Fantasque Sans Mono';fill:#d67c00;fill-opacity:1"
           id="path2469" />
      </g>
      <path
         id="path2473"
         style="fill:#d67c00;fill-opacity:1;stroke-width:3.90984;stroke-dasharray:11.7295, 3.90984;stroke-dashoffset:1.95492;stop-color:#000000"
         d="m 1471.9463,644.66413 c 2.377,-2.37705 7.7079,-2.37705 10.0849,0 2.3771,2.37704 2.3771,7.70788 0,10.08492 -2.377,2.37705 -7.7079,2.37705 -10.0849,0 -2.3771,-2.37704 -2.3771,-7.70788 0,-10.08492 z"
         sodipodi:nodetypes="zzzzz" />
    </g>
  </g>
</svg>
